<?xml version="1.0" encoding="UTF-8" standalone="no"?>
<!-- Created with Inkscape (http://www.inkscape.org/) -->

<svg
   xmlns:dc="http://purl.org/dc/elements/1.1/"
   xmlns:cc="http://creativecommons.org/ns#"
   xmlns:rdf="http://www.w3.org/1999/02/22-rdf-syntax-ns#"
   xmlns:svg="http://www.w3.org/2000/svg"
   xmlns="http://www.w3.org/2000/svg"
   xmlns:sodipodi="http://sodipodi.sourceforge.net/DTD/sodipodi-0.dtd"
   xmlns:inkscape="http://www.inkscape.org/namespaces/inkscape"
   width="267.15619"
   height="267.14062"
   id="svg2"
   version="1.1"
   inkscape:version="0.48.4 r9939"
   sodipodi:docname="krotovic_icon.svg">
  <metadata
     id="metadata3059">
    <rdf:RDF>
      <cc:Work
         rdf:about="">
        <dc:format>image/svg+xml</dc:format>
        <dc:type
           rdf:resource="http://purl.org/dc/dcmitype/StillImage" />
      </cc:Work>
    </rdf:RDF>
  </metadata>
  <defs
     id="defs4" />
  <sodipodi:namedview
     id="base"
     pagecolor="#ffffff"
     bordercolor="#666666"
     borderopacity="1.0"
     inkscape:pageopacity="0.0"
     inkscape:pageshadow="2"
     inkscape:zoom="1.979899"
     inkscape:cx="52.929306"
     inkscape:cy="151.03624"
     inkscape:document-units="px"
     inkscape:current-layer="layer1"
     showgrid="false"
     showguides="true"
     inkscape:guide-bbox="true"
     inkscape:snap-to-guides="false"
     inkscape:snap-grids="false"
     inkscape:window-width="1366"
     inkscape:window-height="747"
     inkscape:window-x="0"
     inkscape:window-y="21"
     inkscape:window-maximized="1"
     width="744.09px"
     fit-margin-top="0"
     fit-margin-left="0"
     fit-margin-right="0"
     fit-margin-bottom="0"
     inkscape:snap-global="false" />
  <g
     inkscape:groupmode="layer"
     id="layer2"
     inkscape:label="Layer"
     style="display:inline"
     transform="translate(-50.707587,-40.213167)" />
  <g
     inkscape:label="Layer 1"
     inkscape:groupmode="layer"
     id="layer1"
     transform="translate(-50.707587,-40.213167)">
    <path
       sodipodi:type="arc"
       style="fill-opacity:1;stroke:none;fill:#e2554f"
       id="path4791"
       sodipodi:cx="133.59267"
       sodipodi:cy="132.03271"
       sodipodi:rx="132.58252"
       sodipodi:ry="132.58252"
       d="m 266.17519,132.03271 c 0,73.22331 -59.35922,132.58252 -132.58252,132.58252 -73.223307,0 -132.5825229,-59.35921 -132.5825229,-132.58252 0,-73.223299 59.3592159,-132.58251469 132.5825229,-132.58251469 73.2233,0 132.58252,59.35921569 132.58252,132.58251469 z"
       transform="translate(50.693015,41.750765)" />
    <path
       style="fill:#e35d59;fill-opacity:1;display:inline"
       d="m -125.83111,37.687785 c -73.76946,0 -133.57813,59.808673 -133.57813,133.578135 0,39.36481 17.0305,74.74399 44.125,99.1875 0.99467,-23.22154 4.24113,-45.9031 -2.92187,-53.6875 l -13.42188,-14.57813 12.29688,-12.95312 c 18.54545,-21.50647 -3.22362,-87.95175 13.25,-109.750005 18.06329,-23.90176 49,-15.96875 49,-15.96875 l 2.98437,27.85937 c -21.86966,-16.62599 -31.80488,-15.51065 -43.23437,-6.64062 -16.90423,13.118773 1.48943,87.660805 -14.04688,104.359375 l -12.23437,13.15625 13.45312,14.42188 c 7.17509,7.69633 1.96198,34.99346 1.75,59.57812 15.52833,12.22805 33.83007,21.08414 53.8125,25.46875 0.16483,-0.23266 0.3387,-0.46705 0.5,-0.70312 l -0.125,0.78125 c 9.14921,1.97992 18.64892,3.03125 28.39063,3.03125 34.611159,0 66.146979,-13.15541 89.874999,-34.75 -0.063,-1.59133 -0.11868,-3.17579 -0.20313,-4.76563 -0.27742,-5.22284 -0.64525,-10.40543 -0.95312,-15.34375 -0.30788,-4.93832 -0.56325,-9.63273 -0.59375,-13.875 -0.0152,-2.12113 0.0288,-4.13004 0.14062,-6 0.11182,-1.86996 0.30077,-3.60453 0.57813,-5.17187 0.27735,-1.56735 0.64362,-2.97422 1.125,-4.1875 0.24069,-0.60665 0.51359,-1.16339 0.8125,-1.67188 0.29891,-0.50848 0.62243,-0.97111 0.98437,-1.375 l 12.95313,-14.45312 -11.78125,-13.17188 c -0.46762,-0.52287 -0.90671,-1.10195 -1.3125,-1.73437 -0.4058,-0.63242 -0.77695,-1.31221 -1.125,-2.04688 -0.6961,-1.46934 -1.29172,-3.13416 -1.78125,-4.96875 -0.48954,-1.83458 -0.88759,-3.84289 -1.20313,-5.98437 -0.31554,-2.14149 -0.54463,-4.42247 -0.71875,-6.8125 -0.17412,-2.39004 -0.29411,-4.88851 -0.35937,-7.46875 -0.0653,-2.58024 -0.0735,-5.24103 -0.0625,-7.95313 0.0221,-5.42419 0.16514,-11.05471 0.29687,-16.65625 0.13173,-5.60154 0.25352,-11.17227 0.23438,-16.48437 -0.01,-2.65605 -0.0601,-5.25383 -0.15625,-7.75 -0.0961,-2.49617 -0.23784,-4.89393 -0.45313,-7.17188 -0.21529,-2.27794 -0.50799,-4.43613 -0.875,-6.437502 -0.367,-2.001373 -0.80808,-3.849173 -1.35937,-5.515623 -0.27565,-0.83323 -0.57843,-1.62082 -0.90625,-2.35938 -0.32783,-0.73855 -0.67843,-1.42591 -1.0625,-2.0625 -0.38408,-0.63659 -0.80561,-1.22267 -1.25,-1.75 -0.4444,-0.52733 -0.91309,-0.99547 -1.42188,-1.40625 -1.37603,-1.11097 -2.73736,-2.10434 -4.09375,-2.95312 -1.35638,-0.84878 -2.70651,-1.5463 -4.09375,-2.09375 -0.69362,-0.27373 -1.39857,-0.51207 -2.10937,-0.70313 -0.7108,-0.19105 -1.43758,-0.33401 -2.17188,-0.4375 -0.7343,-0.10349 -1.48589,-0.17646 -2.25,-0.1875 -0.7641,-0.0111 -1.54352,0.0387 -2.34375,0.125 -0.80023,0.0863 -1.61046,0.2177 -2.45312,0.40625 -0.84267,0.18855 -1.71796,0.42307 -2.60938,0.71875 -1.78282,0.59136 -3.65617,1.40389 -5.67187,2.45313 -2.0157,1.04924 -4.16967,2.34437 -6.46875,3.89062 -2.29908,1.54625 -4.75766,3.33947 -7.39063,5.42188 l 2.875,-27.90625 c 0,0 1.87286,-0.50502 4.9375,-0.875 1.53232,-0.185 3.35493,-0.33087 5.40625,-0.375 2.05132,-0.0442 4.32883,0.0134 6.73438,0.26562 1.20277,0.12615 2.44269,0.30183 3.70312,0.53125 1.26044,0.22942 2.53063,0.52286 3.82813,0.875 1.29749,0.35215 2.60791,0.75569 3.92187,1.25 1.31397,0.49431 2.64329,1.07845 3.95313,1.73438 1.30983,0.65592 2.60551,1.39739 3.89062,2.23437 1.28511,0.83699 2.55709,1.75938 3.79688,2.79688 1.23978,1.03749 2.45113,2.18005 3.625,3.4375 1.17386,1.25744 2.30327,2.62815 3.39062,4.125 0.49583,0.68255 0.96442,1.42032 1.39063,2.1875 0.4262,0.76718 0.81068,1.57555 1.17187,2.42187 0.72239,1.69265 1.32244,3.52365 1.8125,5.5 0.49007,1.97636 0.8772,4.09626 1.17188,6.3125 0.29468,2.216243 0.50439,4.540825 0.64062,6.953135 0.13624,2.4123 0.18839,4.90421 0.20313,7.46875 0.0147,2.56454 -0.008,5.20204 -0.0781,7.875 -0.13964,5.34591 -0.41564,10.85836 -0.67187,16.375 -0.25624,5.51664 -0.50084,11.03822 -0.57813,16.375 -0.0387,2.66839 -0.0303,5.28606 0.0312,7.84375 0.0615,2.55769 0.17641,5.04996 0.375,7.45312 0.1986,2.40317 0.47112,4.71706 0.84375,6.92188 0.37263,2.20482 0.8539,4.30297 1.4375,6.26562 0.2918,0.98133 0.60166,1.93119 0.95313,2.84375 0.35147,0.91257 0.74049,1.78667 1.15625,2.625 0.41576,0.83833 0.85908,1.63201 1.34375,2.39063 0.48466,0.75861 1.00431,1.48283 1.5625,2.15625 l 11.84375,12.96875 -12.92188,14.60937 c -0.39662,0.44842 -0.76108,0.95565 -1.09375,1.5 -0.33267,0.54435 -0.63289,1.13081 -0.90625,1.76563 -0.5467,1.26964 -0.97526,2.71377 -1.3125,4.3125 -0.33724,1.59872 -0.58515,3.35031 -0.75,5.23437 -0.16484,1.88407 -0.25173,3.90558 -0.28125,6.03125 -0.0295,2.12567 0.009,4.36396 0.0781,6.6875 0.0687,2.32354 0.16694,4.72546 0.29687,7.20313 0.22238,4.24035 0.51122,8.73187 0.76563,13.25 23.0627796,-24.00487 37.2656196,-56.58274 37.2656196,-92.5 0,-73.769462 -59.8086596,-133.578135 -133.5781186,-133.578135 z m -61.76563,63.062505 31.42188,0 0,71.90625 c 5.48529,-5.53084 11.21904,-11.40788 17.20312,-17.60937 5.98394,-6.36885 11.88525,-12.72464 17.70313,-19.09375 5.98392,-6.53644 11.6339,-12.82545 16.95312,-18.85938 5.319019,-6.0336 10.131219,-11.48304 14.453129,-16.34375 l 37.65625,0 c -5.4855,6.36916 -11.30303,12.98774 -17.45313,19.85938 -6.15037,6.87194 -12.47056,13.83574 -18.95312,20.875 -6.4828,6.87192 -13.054319,13.7377 -19.703129,20.60937 -6.48278,6.8719 -12.87112,13.4081 -19.1875,19.60938 6.98127,5.36343 14.03983,11.65245 21.1875,18.85937 7.313689,7.03947 14.456029,14.66244 21.437499,22.875 6.98123,8.04508 13.63653,16.50761 19.95313,25.39063 6.48254,8.71546 12.38384,17.42519 17.70312,26.14062 l -37.15625,0 c -4.32191,-6.70418 -9.30167,-13.73475 -14.95312,-21.10937 -5.651679,-7.37458 -11.636759,-14.50318 -17.953129,-21.375 -6.15032,-6.87175 -12.55429,-13.40794 -19.20312,-19.60938 -6.64897,-6.2013 -13.20488,-11.56834 -19.6875,-16.09375 l 0,78.1875 -31.42188,0 0,-174.21875 z"
       id="path3769"
       inkscape:connector-curvature="0" />
    <path
       sodipodi:nodetypes="ccccccccc"
       inkscape:connector-curvature="0"
       id="path3011"
       style="font-size:190.76991272000000777px;font-style:normal;font-variant:normal;font-weight:normal;font-stretch:normal;line-height:125%;letter-spacing:0px;word-spacing:0px;fill:#c63f3f;fill-opacity:1;stroke:none;font-family:OpenSymbol;-inkscape-font-specification:OpenSymbol"
       d="m 84.458772,92.651264 28.801878,0.185683 -0.53572,128.321833 63.2337,0.90556 -0.16957,26.30323 -91.624262,0.0668 5.116966,-6.42747 -0.535167,-144.653243 z" />
    <g
       id="g3784"
       style="font-size:52.99164199999999880px;font-style:normal;font-weight:normal;line-height:125%;letter-spacing:0px;word-spacing:0px;fill:#e7726f;fill-opacity:1;stroke:none;font-family:Sans"
       transform="matrix(0.95328103,0,0,1.0490086,-10.606602,-0.50507627)">
      <path
         id="path3786"
         style="font-size:190.76991272000000777px;font-variant:normal;font-stretch:normal;fill:#e7726f;font-family:OpenSymbol;-inkscape-font-specification:OpenSymbol;fill-opacity:1"
         d="m 104.04653,92.774607 18.81618,0 0,123.236623 67.71959,0 0,15.83539 -86.53577,0 0,-139.072013"
         inkscape:connector-curvature="0" />
    </g>
    <g
       transform="matrix(1.7409001,-0.11448633,0.11399132,1.74846,-175.74744,-131.85655)"
       id="g5314"
       style="font-size:40px;font-style:normal;font-weight:normal;line-height:125%;letter-spacing:0px;word-spacing:0px;fill:#425472;fill-opacity:1;stroke:none;font-family:Sans" />
    <g
       id="g3788"
       style="font-size:52.99164199999999880px;font-style:normal;font-weight:normal;line-height:125%;letter-spacing:0px;word-spacing:0px;fill:#c03535;fill-opacity:1;stroke:none;font-family:Sans"
       transform="matrix(0.95328103,0,0,1.0490086,7.576144,-4.5456864)">
      <path
         id="path3790"
         style="font-size:190.76991272000000777px;font-variant:normal;font-stretch:normal;fill:#c03535;font-family:OpenSymbol;-inkscape-font-specification:OpenSymbol;fill-opacity:1"
         d="m 177.56036,94.339412 26.15067,-0.12037 -0.72657,61.758768 58.80893,-58.963851 -0.99055,-2.787401 33.36345,0.340458 -71.91503,67.014114 79.24397,77.95813 -1.22785,1.80949 -36.91769,-0.19002 3.10032,-5.21242 -62.71625,-71.07411 -0.30912,76.25685 -27.00957,0.0998 3.9856,-5.05535 -0.0587,-138.945151"
         inkscape:connector-curvature="0"
         sodipodi:nodetypes="cccccccccccccccc" />
    </g>
    <g
       transform="matrix(0.95328103,0,0,1.0490086,-10.606602,-0.50507627)"
       style="font-size:52.99164199999999880px;font-style:normal;font-weight:normal;line-height:125%;letter-spacing:0px;word-spacing:0px;fill:#e87a75;fill-opacity:1;stroke:none;font-family:Sans"
       id="text3004">
      <path
         d="m 199.41582,93.256083 18.81617,0 0,58.777257 62.41008,-58.777257 24.21884,0 -69.02369,64.831967 73.9606,74.24004 -24.77773,0 -66.7881,-66.97439 0,66.97439 -18.81617,0 0,-139.072007"
         style="font-size:190.76991272000000777px;font-variant:normal;font-stretch:normal;fill:#e87a75;font-family:OpenSymbol;-inkscape-font-specification:OpenSymbol;fill-opacity:1"
         id="path3014"
         inkscape:connector-curvature="0" />
    </g>
  </g>
</svg>
