<?xml version="1.0" encoding="UTF-8" standalone="no"?>
<!-- Created with Inkscape (http://www.inkscape.org/) -->

<svg
   xmlns:dc="http://purl.org/dc/elements/1.1/"
   xmlns:cc="http://creativecommons.org/ns#"
   xmlns:rdf="http://www.w3.org/1999/02/22-rdf-syntax-ns#"
   xmlns:svg="http://www.w3.org/2000/svg"
   xmlns="http://www.w3.org/2000/svg"
   xmlns:xlink="http://www.w3.org/1999/xlink"
   xmlns:sodipodi="http://sodipodi.sourceforge.net/DTD/sodipodi-0.dtd"
   xmlns:inkscape="http://www.inkscape.org/namespaces/inkscape"
   width="267.15619"
   height="267.14062"
   id="svg2"
   version="1.1"
   inkscape:version="0.48.4 r9939"
   sodipodi:docname="projects.svg">
  <metadata
     id="metadata3059">
    <rdf:RDF>
      <cc:Work
         rdf:about="">
        <dc:format>image/svg+xml</dc:format>
        <dc:type
           rdf:resource="http://purl.org/dc/dcmitype/StillImage" />
        <dc:title></dc:title>
      </cc:Work>
    </rdf:RDF>
  </metadata>
  <defs
     id="defs4">
    <linearGradient
       id="linearGradient4764">
      <stop
         style="stop-color:#000000;stop-opacity:0.47826087;"
         offset="0"
         id="stop4766" />
      <stop
         id="stop4772"
         offset="0.56098968"
         style="stop-color:#000000;stop-opacity:0;" />
      <stop
         style="stop-color:#000000;stop-opacity:0.59130436;"
         offset="1"
         id="stop4768" />
    </linearGradient>
    <linearGradient
       inkscape:collect="always"
       xlink:href="#linearGradient4764"
       id="linearGradient4781"
       gradientUnits="userSpaceOnUse"
       x1="14.041766"
       y1="293.82919"
       x2="379.11804"
       y2="153.43106"
       gradientTransform="translate(-50.707587,-40.213167)" />
  </defs>
  <sodipodi:namedview
     id="base"
     pagecolor="#ffffff"
     bordercolor="#666666"
     borderopacity="1.0"
     inkscape:pageopacity="0.0"
     inkscape:pageshadow="2"
     inkscape:zoom="1.097944"
     inkscape:cx="54.208751"
     inkscape:cy="112.49452"
     inkscape:document-units="px"
     inkscape:current-layer="layer1"
     showgrid="false"
     showguides="true"
     inkscape:guide-bbox="true"
     inkscape:snap-to-guides="false"
     inkscape:snap-grids="false"
     inkscape:window-width="1424"
     inkscape:window-height="753"
     inkscape:window-x="201"
     inkscape:window-y="180"
     inkscape:window-maximized="0"
     width="744.09px"
     fit-margin-top="0"
     fit-margin-left="0"
     fit-margin-right="0"
     fit-margin-bottom="0" />
  <g
     inkscape:groupmode="layer"
     id="layer2"
     inkscape:label="Layer"
     style="display:inline"
     transform="translate(-50.707587,-40.213167)" />
  <g
     inkscape:label="Layer 1"
     inkscape:groupmode="layer"
     id="layer1"
     transform="translate(-50.707587,-40.213167)">
    <path
       style="fill:#e35d59;fill-opacity:1;display:inline"
       d="m 139.49486,249.15912 c -15.922,0 -28.83078,12.90878 -28.83078,28.83078 0,8.49628 3.67577,16.13233 9.5237,21.40809 0.21468,-5.01201 0.91538,-9.90748 -0.63064,-11.58762 l -2.89691,-3.14647 2.6541,-2.79573 c 4.00274,-4.64184 -0.69577,-18.98302 2.8598,-23.68784 3.89869,-5.15883 10.5759,-3.44661 10.5759,-3.44661 l 0.64413,6.01301 c -4.72023,-3.58846 -6.8646,-3.34773 -9.33147,-1.43327 -3.64852,2.83149 0.32147,18.92023 -3.03181,22.52436 l -2.6406,2.83957 2.90365,3.11274 c 1.54863,1.66114 0.42347,7.5528 0.37771,12.85902 3.35155,2.63924 7.3017,4.55069 11.6146,5.49704 0.0356,-0.0502 0.0731,-0.10081 0.10792,-0.15176 l -0.027,0.16862 c 1.97471,0.42734 4.02508,0.65425 6.12768,0.65425 7.47028,0 14.2768,-2.83939 19.39813,-7.50025 -0.0136,-0.34347 -0.0256,-0.68545 -0.0438,-1.02859 -0.0599,-1.12727 -0.13927,-2.24585 -0.20572,-3.31171 -0.0665,-1.06586 -0.12157,-2.07908 -0.12815,-2.9947 -0.003,-0.45782 0.006,-0.89141 0.0303,-1.29501 0.0241,-0.4036 0.0649,-0.77798 0.12478,-1.11627 0.0599,-0.33829 0.13892,-0.64194 0.24281,-0.90381 0.052,-0.13093 0.11086,-0.2511 0.17537,-0.36085 0.0645,-0.10974 0.13434,-0.2096 0.21246,-0.29677 l 2.79573,-3.11948 -2.5428,-2.84295 c -0.10092,-0.11285 -0.1957,-0.23784 -0.28328,-0.37434 -0.0876,-0.13649 -0.16769,-0.28322 -0.24281,-0.44178 -0.15025,-0.31714 -0.2788,-0.67646 -0.38446,-1.07243 -0.10566,-0.39597 -0.19157,-0.82943 -0.25968,-1.29164 -0.0681,-0.4622 -0.11755,-0.95452 -0.15513,-1.47037 -0.0376,-0.51585 -0.0635,-1.05511 -0.0776,-1.61201 -0.0141,-0.55691 -0.0159,-1.1312 -0.0135,-1.71656 0.005,-1.17073 0.0356,-2.38599 0.0641,-3.595 0.0284,-1.209 0.0547,-2.41136 0.0506,-3.5579 -0.002,-0.57326 -0.013,-1.13395 -0.0337,-1.67271 -0.0207,-0.53876 -0.0513,-1.05628 -0.0978,-1.54794 -0.0465,-0.49166 -0.10964,-0.95747 -0.18885,-1.38944 -0.0792,-0.43196 -0.17441,-0.83078 -0.2934,-1.19046 -0.0595,-0.17984 -0.12485,-0.34983 -0.1956,-0.50924 -0.0708,-0.1594 -0.14643,-0.30776 -0.22933,-0.44516 -0.0829,-0.13739 -0.17387,-0.26389 -0.26979,-0.37771 -0.0959,-0.11381 -0.19707,-0.21485 -0.30689,-0.30351 -0.29699,-0.23979 -0.59082,-0.45419 -0.88357,-0.63739 -0.29276,-0.18319 -0.58416,-0.33374 -0.88357,-0.4519 -0.14971,-0.0591 -0.30186,-0.11052 -0.45528,-0.15176 -0.15341,-0.0412 -0.31028,-0.0721 -0.46877,-0.0944 -0.15848,-0.0223 -0.3207,-0.0381 -0.48562,-0.0405 -0.16492,-0.002 -0.33315,0.008 -0.50587,0.027 -0.17271,0.0186 -0.34759,0.047 -0.52946,0.0877 -0.18188,0.0407 -0.3708,0.0913 -0.5632,0.15513 -0.38479,0.12764 -0.78913,0.30301 -1.22418,0.52948 -0.43506,0.22646 -0.89996,0.50599 -1.39618,0.83973 -0.49623,0.33373 -1.02687,0.72077 -1.59516,1.17022 l 0.62053,-6.02313 c 0,0 0.40422,-0.109 1.06568,-0.18885 0.33073,-0.0399 0.72411,-0.0714 1.16686,-0.0809 0.44274,-0.01 0.93431,0.003 1.45351,0.0573 0.2596,0.0272 0.52721,0.0651 0.79926,0.11466 0.27205,0.0495 0.5462,0.11285 0.82624,0.18886 0.28004,0.076 0.56288,0.1631 0.84648,0.26979 0.2836,0.10669 0.57051,0.23277 0.85322,0.37434 0.28271,0.14157 0.56236,0.3016 0.83973,0.48225 0.27737,0.18065 0.55191,0.37974 0.8195,0.60367 0.26758,0.22392 0.52904,0.47053 0.7824,0.74193 0.25336,0.2714 0.49712,0.56724 0.73181,0.89031 0.10702,0.14732 0.20816,0.30656 0.30015,0.47214 0.092,0.16559 0.17497,0.34006 0.25293,0.52273 0.15591,0.36533 0.28542,0.76052 0.3912,1.18709 0.10577,0.42656 0.18933,0.88411 0.25293,1.36245 0.0636,0.47834 0.10886,0.98007 0.13827,1.50073 0.0294,0.52066 0.0407,1.0585 0.0438,1.61201 0.003,0.55352 -0.002,1.12278 -0.0169,1.6997 -0.0301,1.15383 -0.0897,2.34361 -0.14502,3.53429 -0.0553,1.19068 -0.1081,2.38243 -0.12478,3.53429 -0.008,0.57593 -0.006,1.14092 0.007,1.69295 0.0133,0.55204 0.0381,1.08996 0.0809,1.60865 0.0429,0.51868 0.10169,1.0181 0.18211,1.49398 0.0804,0.47587 0.1843,0.92873 0.31027,1.35233 0.063,0.21181 0.12985,0.41682 0.20571,0.61378 0.0759,0.19697 0.15983,0.38563 0.24956,0.56657 0.0897,0.18094 0.18542,0.35224 0.29003,0.51598 0.10461,0.16373 0.21677,0.32005 0.33724,0.46539 l 2.55629,2.79911 -2.78899,3.1532 c -0.0856,0.0968 -0.16426,0.20627 -0.23606,0.32376 -0.0718,0.11749 -0.1366,0.24406 -0.19561,0.38108 -0.11799,0.27403 -0.21049,0.58573 -0.28328,0.93079 -0.0728,0.34506 -0.12629,0.72311 -0.16187,1.12975 -0.0356,0.40665 -0.0543,0.84296 -0.0607,1.30176 -0.006,0.45879 0.002,0.94189 0.0169,1.44339 0.0148,0.5015 0.036,1.01992 0.0641,1.55469 0.048,0.91521 0.11034,1.88463 0.16525,2.8598 4.97774,-5.18108 8.0432,-12.21251 8.0432,-19.96469 0,-15.922 -12.90877,-28.83078 -28.83077,-28.83078 z m -13.33116,13.61107 6.78193,0 0,15.51985 c 1.18391,-1.19375 2.42145,-2.46221 3.71303,-3.80071 1.29154,-1.37462 2.56524,-2.74642 3.82094,-4.12109 1.29154,-1.41079 2.511,-2.76818 3.65907,-4.07051 1.14803,-1.30226 2.18667,-2.47844 3.11949,-3.52754 l 8.12752,0 c -1.18396,1.37468 -2.43959,2.8032 -3.76699,4.28634 -1.32746,1.4832 -2.69158,2.98623 -4.09074,4.50554 -1.39921,1.4832 -2.81757,2.96507 -4.25262,4.44822 -1.3992,1.48319 -2.77803,2.89393 -4.14132,4.23238 1.5068,1.15761 3.03028,2.515 4.57299,4.0705 1.57855,1.51936 3.12011,3.16466 4.62696,4.93722 1.50679,1.73641 2.94323,3.56291 4.30657,5.48017 1.39916,1.8811 2.67286,3.76096 3.82095,5.64205 l -8.01961,0 c -0.93281,-1.44699 -2.00762,-2.96443 -3.2274,-4.55613 -1.21982,-1.59169 -2.51161,-3.13029 -3.8749,-4.61346 -1.32745,-1.48316 -2.70965,-2.8939 -4.1447,-4.23238 -1.43508,-1.33846 -2.85007,-2.49685 -4.24924,-3.47359 l 0,16.87556 -6.78193,0 0,-37.60242 z"
       id="path3769"
       inkscape:connector-curvature="0" />
    <path
       style="fill:url(#linearGradient4781);fill-opacity:1;stroke:none;display:none"
       d="m 236.40625,103.28125 -209.96875,3.125 79.40625,157.90625 c 8.84861,1.85504 18.00791,2.8125 27.40625,2.8125 60.6716,0 111.85835,-40.64499 127.96875,-96.25 l -24.8125,-67.59375 z"
       transform="translate(50.707587,40.213167)"
       id="rect4761"
       inkscape:connector-curvature="0" />
    <g
       id="g5337"
       transform="matrix(0.21055586,0,0,0.21055586,25.186636,242.10191)">
      <path
         transform="matrix(0.31111329,0,0,0.31184204,90.526513,11.064696)"
         d="m 968.76743,515.61627 c 0,236.55105 -191.76252,428.31357 -428.31357,428.31357 -236.55105,0 -428.31357,-191.76252 -428.31357,-428.31357 0,-236.55105 191.76252,-428.313566 428.31357,-428.313566 236.55105,0 428.31357,191.762516 428.31357,428.313566 z"
         sodipodi:ry="428.31357"
         sodipodi:rx="428.31357"
         sodipodi:cy="515.61627"
         sodipodi:cx="540.45386"
         id="path3231"
         style="fill:#3a4164;fill-opacity:0.989071;stroke:none"
         sodipodi:type="arc" />
      <path
         sodipodi:nodetypes="cccc"
         inkscape:connector-curvature="0"
         id="path3290"
         d="m 179.69821,156.99049 78.97068,101.5221 -31.41372,-98.2673 z"
         style="fill:#c76363;fill-opacity:1;stroke:none" />
      <path
         sodipodi:nodetypes="cccc"
         inkscape:connector-curvature="0"
         id="path3288"
         d="m 227.1289,160.11902 31.53999,98.39357 27.15593,-98.64611 z"
         style="fill:#cd7575;fill-opacity:1;stroke:none" />
      <path
         sodipodi:nodetypes="cccc"
         inkscape:connector-curvature="0"
         id="path3286"
         d="m 333.00252,155.39367 -74.33363,103.11892 26.97736,-98.37825 z"
         style="fill:#d78f8f;fill-opacity:1;stroke:none" />
      <path
         sodipodi:nodetypes="cccc"
         inkscape:connector-curvature="0"
         id="path3284"
         d="M 364.92906,141.28163 258.66889,258.51259 332.55609,155.75081 z"
         style="fill:#e7bbbb;fill-opacity:1;stroke:none" />
      <path
         sodipodi:nodetypes="ccccc"
         inkscape:connector-curvature="0"
         id="path3282"
         d="m 323.72697,121.14977 29.33005,1.5044 11.78275,18.80603 -32.19439,14.3799 z"
         style="fill:#efd1d1;fill-opacity:1;stroke:none" />
      <path
         sodipodi:nodetypes="ccccc"
         inkscape:connector-curvature="0"
         id="path3280"
         d="m 278.10592,119.64947 45.88891,1.5003 8.65055,34.69033 -46.88818,4.38352 z"
         style="fill:#dfa4a4;fill-opacity:1;stroke:none" />
      <path
         sodipodi:nodetypes="ccccc"
         inkscape:connector-curvature="0"
         id="path3278"
         d="m 238.01015,119.93566 40.07084,-0.25253 7.69787,40.60177 -58.62195,0.20921 z"
         style="fill:#d58b8b;fill-opacity:1;stroke:none" />
      <path
         sodipodi:nodetypes="ccccc"
         inkscape:connector-curvature="0"
         id="path3276"
         d="m 193.80397,120.89338 44.32348,-0.954 -10.93336,40.40317 -47.39128,-3.07151 z"
         style="fill:#c86868;fill-opacity:1;stroke:none" />
      <path
         sodipodi:nodetypes="ccccc"
         inkscape:connector-curvature="0"
         id="path3274"
         d="m 152.23014,143.76098 15.87399,-20.73621 25.63856,-2.02678 -13.86591,37.1927 z"
         style="fill:#a63c3c;fill-opacity:1;stroke:none" />
      <path
         inkscape:connector-curvature="0"
         id="path3269"
         d="M 152.23014,143.76098 258.66889,258.51259 180.32248,157.56569 z"
         style="fill:#bd4747;fill-opacity:1;stroke:none" />
      <path
         style="fill:#993939;fill-opacity:0.54945056;stroke:none"
         d="m 238.13556,119.8447 -11.00207,40.61011 58.87656,-0.16063 z"
         id="path4747"
         inkscape:connector-curvature="0"
         sodipodi:nodetypes="cccc" />
      <path
         sodipodi:nodetypes="cccc"
         inkscape:connector-curvature="0"
         id="path4751"
         d="m 278.06042,119.54287 7.78365,40.68511 46.92813,-4.39888 z"
         style="fill:#c76565;fill-opacity:0.52747258;stroke:none" />
      <path
         style="fill:#bf4e4e;fill-opacity:0.54945056;stroke:none"
         d="m 193.7969,120.83062 -13.54505,36.55606 47.0052,2.93195 z"
         id="path4755"
         inkscape:connector-curvature="0"
         sodipodi:nodetypes="cccc" />
      <path
         style="fill:#e3aeae;fill-opacity:1;stroke:none"
         d="m 323.94742,121.11269 8.66919,34.7681 32.27649,-14.46182 z"
         id="path4757"
         inkscape:connector-curvature="0"
         sodipodi:nodetypes="cccc" />
      <path
         sodipodi:nodetypes="cccc"
         inkscape:connector-curvature="0"
         id="path4759"
         d="m 168.0007,122.95174 -15.79914,20.85788 28.00637,13.71942 z"
         style="fill:#7a2c2c;fill-opacity:0.54945056;stroke:none" />
    </g>
    <g
       transform="matrix(0.21686182,0,0,0.21686182,160.11316,239.61062)"
       id="g5370">
      <path
         transform="translate(50.693015,41.750765)"
         d="m 266.17519,132.03271 c 0,73.22331 -59.35922,132.58252 -132.58252,132.58252 -73.223307,0 -132.5825229,-59.35921 -132.5825229,-132.58252 0,-73.223299 59.3592159,-132.58251469 132.5825229,-132.58251469 73.2233,0 132.58252,59.35921569 132.58252,132.58251469 z"
         sodipodi:ry="132.58252"
         sodipodi:rx="132.58252"
         sodipodi:cy="132.03271"
         sodipodi:cx="133.59267"
         id="path4791"
         style="fill:#e35d59;fill-opacity:1;stroke:none"
         sodipodi:type="arc" />
      <g
         style="font-size:40px;font-style:normal;font-weight:normal;line-height:125%;letter-spacing:0px;word-spacing:0px;fill:#425472;fill-opacity:1;stroke:none;font-family:Sans"
         id="g5314"
         transform="matrix(1.7409001,-0.11448633,0.11399132,1.74846,-155.54439,-132.36163)">
        <path
           d="m 164.8455,135.20209 14.05869,-0.009 0.0816,40.90609 43.42616,-41.28635 11.51357,9.75037 -41.58779,39.57685 44.43285,45.05709 -11.17955,10.29515 -47.13578,-47.45134 0.16951,47.96597 -14.61762,-0.31601 0.8384,-104.48836"
           style="font-size:144px;font-variant:normal;font-stretch:normal;fill:#425472;fill-opacity:1;font-family:Standard Symbols L;-inkscape-font-specification:Standard Symbols L"
           id="path5316"
           inkscape:connector-curvature="0"
           sodipodi:nodetypes="cccccccccccc" />
      </g>
      <g
         transform="matrix(1.7409001,-0.11448633,0.11399132,1.74846,-162.11038,-132.36163)"
         id="text5305"
         style="font-size:40px;font-style:normal;font-weight:normal;line-height:125%;letter-spacing:0px;word-spacing:0px;fill:#50678b;fill-opacity:1;stroke:none;font-family:Sans">
        <path
           sodipodi:nodetypes="cccccccccccc"
           inkscape:connector-curvature="0"
           id="path5310"
           style="font-size:144px;font-variant:normal;font-stretch:normal;fill:#50678b;fill-opacity:1;font-family:Standard Symbols L;-inkscape-font-specification:Standard Symbols L"
           d="m 164.8455,135.20209 14.20313,0 0,44.36718 47.10937,-44.36718 9.18988,7.57614 -43.01019,41.36136 45.7266,47.45276 -8.6016,8.5863 -50.41406,-50.55469 0,50.55469 -14.20313,0 0,-104.97656" />
      </g>
      <path
         sodipodi:nodetypes="ccccccc"
         inkscape:connector-curvature="0"
         id="path5301"
         d="m 61.505553,183.95692 73.374757,-67.3937 10.99401,11.31863 -63.101762,55.9729 49.895462,56.47361 -11.20341,12.50485 z"
         style="fill:#f0aba9;fill-opacity:1;stroke:none" />
      <path
         sodipodi:nodetypes="ccccc"
         inkscape:connector-curvature="0"
         id="path5303"
         d="m 152.07118,103.06081 -46.81535,153.39445 13.75027,4.9366 48.37412,-152.53304 z"
         style="fill:#f8dbd9;fill-opacity:1;stroke:none" />
      <path
         style="fill:#f0aba9;fill-opacity:1;stroke:none"
         d="m 294.01694,180.28586 -71.25219,-69.63399 -11.3393,10.97269 61.33785,57.90048 -51.62068,54.90111 10.81072,12.84585 z"
         id="path5312"
         inkscape:connector-curvature="0"
         sodipodi:nodetypes="ccccccc" />
    </g>
  </g>
</svg>
